Temperaturen in der Nacht – DAV
…
Temperaturen in der Nacht

    Author

             Robin Kohrs / Netzwerk Klimajournalismus 

    Published

      27 April 2025

Durschnittstemperatur in der Nacht im Juli

In Wien

# A tibble: 38 × 3
  name      long_name                                      unit 
  <chr>     <chr>                                          <chr>
1 cglo      Globalstrahlung Mittelwert                     W/m² 
2 cglo_flag Qualitätsflag für Globalstrahlung Mittelwert   code 
3 dd        Windrichtung 360° Mittelwert                   °    
4 dd_flag   Qualitätsflag für Windrichtung 360° Mittelwert code 
5 ddx       Windrichtung zur Spitzenböe                    °    
6 ddx_flag  Qualitätsflag für Windrichtung zur Spitzenböe  code 
# ℹ 32 more rows

# A tibble: 38 × 3
  name      long_name                                      unit 
  <chr>     <chr>                                          <chr>
1 cglo      Globalstrahlung Mittelwert                     W/m² 
2 cglo_flag Qualitätsflag für Globalstrahlung Mittelwert   code 
3 dd        Windrichtung 360° Mittelwert                   °    
4 dd_flag   Qualitätsflag für Windrichtung 360° Mittelwert code 
5 ddx       Windrichtung zur Spitzenböe                    °    
6 ddx_flag  Qualitätsflag für Windrichtung zur Spitzenböe  code 
# ℹ 32 more rows
…
