…
-> Die kombinierte Station an der Wiener Hohen Warte misst seit 1872


:::{.callout-note collapse=true}

::: {.cell}

```{.r .cell-code}
meta = geosphere_explore_resource("klima-v2-1h")
```

::: {.cell-output .cell-output-stdout}
```
# A tibble: 38 × 3
  name      long_name                                      unit 
  <chr>     <chr>                                          <chr>
1 cglo      Globalstrahlung Mittelwert                     W/m² 
2 cglo_flag Qualitätsflag für Globalstrahlung Mittelwert   code 
3 dd        Windrichtung 360° Mittelwert                   °    
4 dd_flag   Qualitätsflag für Windrichtung 360° Mittelwert code 
5 ddx       Windrichtung zur Spitzenböe                    °    
6 ddx_flag  Qualitätsflag für Windrichtung zur Spitzenböe  code 
# ℹ 32 more rows
# A tibble: 38 × 3
  name      long_name                                      unit 
  <chr>     <chr>                                          <chr>
1 cglo      Globalstrahlung Mittelwert                     W/m² 
2 cglo_flag Qualitätsflag für Globalstrahlung Mittelwert   code 
3 dd        Windrichtung 360° Mittelwert                   °    
4 dd_flag   Qualitätsflag für Windrichtung 360° Mittelwert code 
5 ddx       Windrichtung zur Spitzenböe                    °    
6 ddx_flag  Qualitätsflag für Windrichtung zur Spitzenböe  code 
# ℹ 32 more rows
```
…
::: {.cell}

```{.r .cell-code}
resource_id = "klima-v2-1h"
start_year = 1900
end_year = 2025
month = 7

ex = geosphere_explore_resource("klima-v2-1h")
```

::: {.cell-output .cell-output-stdout}
```
# A tibble: 38 × 3
  name      long_name                                      unit 
  <chr>     <chr>                                          <chr>
1 cglo      Globalstrahlung Mittelwert                     W/m² 
2 cglo_flag Qualitätsflag für Globalstrahlung Mittelwert   code 
3 dd        Windrichtung 360° Mittelwert                   °    
4 dd_flag   Qualitätsflag für Windrichtung 360° Mittelwert code 
5 ddx       Windrichtung zur Spitzenböe                    °    
6 ddx_flag  Qualitätsflag für Windrichtung zur Spitzenböe  code 
# ℹ 32 more rows
# A tibble: 38 × 3
  name      long_name                                      unit 
  <chr>     <chr>                                          <chr>
1 cglo      Globalstrahlung Mittelwert                     W/m² 
2 cglo_flag Qualitätsflag für Globalstrahlung Mittelwert   code 
3 dd        Windrichtung 360° Mittelwert                   °    
4 dd_flag   Qualitätsflag für Windrichtung 360° Mittelwert code 
5 ddx       Windrichtung zur Spitzenböe                    °    
6 ddx_flag  Qualitätsflag für Windrichtung zur Spitzenböe  code 
# ℹ 32 more rows
```
…
